{
  "name": "Module Name",
  "startPage": "com.scanner.module.TestPage",
  "menuPath": "Wordpress/Exploits",
  "params": [
    {
      "name": "Param1",
      "type": "Number",
      "value": 1
    },
    {
      "name": "Param2",
      "type": "String",
      "value": ""
    }
  ]
}